{
    "comprobante" : {
        "NoCertificado": "20001000000300022815",
        "TipoCambio": "1",
        "Moneda": "MXN",
        "TipoDeComprobante": "I",
        "LugarExpedicion": "06850",
        "SubTotal": "1000.00",
        "Total": "1160.00"
    },
    "emisor": {
        "Rfc": "LAN7008173R5",
        "RegimenFiscal": "601"
    },
    "receptor": {
        "Rfc": "BASM740115RW0",
        "UsoCFDI": "G01"
    },
    "conceptos": [
        {
            "ClaveProdServ": "60121001",
            "Cantidad": "1.0",
            "ClaveUnidad": "KGM",
            "Descripcion": "Asesoría en desarrollo",
            "ValorUnitario": "1000.00",
            "Importe": "1000.00",
            "impuestos": {
                "traslados": [
                    {
                        "Base": "1000.00",
                        "Impuesto": "002",
                        "TipoFactor": "Tasa",
                        "TasaOCuota": "0.160000",
                        "Importe": "160.00"
                    }
                ]
            }
        }
    ],
    "impuestos": {
        "TotalImpuestosTrasladados": "160.00",
        "traslados": [
            {
                "Impuesto": "002",
                "TipoFactor": "Tasa",
                "TasaOCuota": "0.160000",
                "Importe": "160.00"
            }
        ]
    }
}
